simulation/qsim/MIC1.msim.vcd
$comment
	File created using the following command:
		vcd file MIC1.msim.vcd -direction
$end
$date
	Wed May 21 14:28:45 2025
$end
$version
	ModelSim Version 10.1d
$end
$timescale
	1ps
$end
$scope module REGISTRADOR_32BIT_vlg_vec_tst $end
$var reg 1 ! CLOCK $end
$var reg 32 " DATA [31:0] $end
$var reg 1 # LOAD $end
$var reg 32 $ P [31:0] $end
$var wire 1 % Q [31] $end
$var wire 1 & Q [30] $end
$var wire 1 ' Q [29] $end
$var wire 1 ( Q [28] $end
$var wire 1 ) Q [27] $end
$var wire 1 * Q [26] $end
$var wire 1 + Q [25] $end
$var wire 1 , Q [24] $end
$var wire 1 - Q [23] $end
$var wire 1 . Q [22] $end
$var wire 1 / Q [21] $end
$var wire 1 0 Q [20] $end
$var wire 1 1 Q [19] $end
$var wire 1 2 Q [18] $end
$var wire 1 3 Q [17] $end
$var wire 1 4 Q [16] $end
$var wire 1 5 Q [15] $end
$var wire 1 6 Q [14] $end
$var wire 1 7 Q [13] $end
$var wire 1 8 Q [12] $end
$var wire 1 9 Q [11] $end
$var wire 1 : Q [10] $end
$var wire 1 ; Q [9] $end
$var wire 1 < Q [8] $end
$var wire 1 = Q [7] $end
$var wire 1 > Q [6] $end
$var wire 1 ? Q [5] $end
$var wire 1 @ Q [4] $end
$var wire 1 A Q [3] $end
$var wire 1 B Q [2] $end
$var wire 1 C Q [1] $end
$var wire 1 D Q [0] $end
$var wire 1 E sampler $end
$scope module i1 $end
$var wire 1 F gnd $end
$var wire 1 G vcc $end
$var wire 1 H unknown $end
$var tri1 1 I devclrn $end
$var tri1 1 J devpor $end
$var tri1 1 K devoe $end
$var wire 1 L CLOCK~combout $end
$var wire 1 M CLOCK~clkctrl_outclk $end
$var wire 1 N LOAD~combout $end
$var wire 1 O LOAD~clkctrl_outclk $end
$var wire 1 P inst3|inst~1_combout $end
$var wire 1 Q inst3|inst~3_combout $end
$var wire 1 R inst3|inst~_emulated_regout $end
$var wire 1 S inst3|inst~2_combout $end
$var wire 1 T inst3|inst29~1_combout $end
$var wire 1 U inst3|inst29~3_combout $end
$var wire 1 V inst3|inst29~_emulated_regout $end
$var wire 1 W inst3|inst29~2_combout $end
$var wire 1 X inst3|inst5~1_combout $end
$var wire 1 Y inst3|inst5~3_combout $end
$var wire 1 Z inst3|inst5~_emulated_regout $end
$var wire 1 [ inst3|inst5~2_combout $end
$var wire 1 \ inst3|inst9~1_combout $end
$var wire 1 ] inst3|inst9~3_combout $end
$var wire 1 ^ inst3|inst9~_emulated_regout $end
$var wire 1 _ inst3|inst9~2_combout $end
$var wire 1 ` inst3|inst14~1_combout $end
$var wire 1 a inst3|inst14~3_combout $end
$var wire 1 b inst3|inst14~_emulated_regout $end
$var wire 1 c inst3|inst14~2_combout $end
$var wire 1 d inst3|inst17~1_combout $end
$var wire 1 e inst3|inst17~3_combout $end
$var wire 1 f inst3|inst17~_emulated_regout $end
$var wire 1 g inst3|inst17~2_combout $end
$var wire 1 h inst3|inst21~1_combout $end
$var wire 1 i inst3|inst21~3_combout $end
$var wire 1 j inst3|inst21~_emulated_regout $end
$var wire 1 k inst3|inst21~2_combout $end
$var wire 1 l inst3|inst26~1_combout $end
$var wire 1 m inst3|inst26~3_combout $end
$var wire 1 n inst3|inst26~_emulated_regout $end
$var wire 1 o inst3|inst26~2_combout $end
$var wire 1 p inst2|inst~1_combout $end
$var wire 1 q inst2|inst~3_combout $end
$var wire 1 r inst2|inst~_emulated_regout $end
$var wire 1 s inst2|inst~2_combout $end
$var wire 1 t inst2|inst29~1_combout $end
$var wire 1 u inst2|inst29~3_combout $end
$var wire 1 v inst2|inst29~_emulated_regout $end
$var wire 1 w inst2|inst29~2_combout $end
$var wire 1 x inst2|inst5~1_combout $end
$var wire 1 y inst2|inst5~3_combout $end
$var wire 1 z inst2|inst5~_emulated_regout $end
$var wire 1 { inst2|inst5~2_combout $end
$var wire 1 | inst2|inst9~1_combout $end
$var wire 1 } inst2|inst9~3_combout $end
$var wire 1 ~ inst2|inst9~_emulated_regout $end
$var wire 1 !! inst2|inst9~2_combout $end
$var wire 1 "! inst2|inst14~1_combout $end
$var wire 1 #! inst2|inst14~3_combout $end
$var wire 1 $! inst2|inst14~_emulated_regout $end
$var wire 1 %! inst2|inst14~2_combout $end
$var wire 1 &! inst2|inst17~1_combout $end
$var wire 1 '! inst2|inst17~3_combout $end
$var wire 1 (! inst2|inst17~_emulated_regout $end
$var wire 1 )! inst2|inst17~2_combout $end
$var wire 1 *! inst2|inst21~1_combout $end
$var wire 1 +! inst2|inst21~3_combout $end
$var wire 1 ,! inst2|inst21~_emulated_regout $end
$var wire 1 -! inst2|inst21~2_combout $end
$var wire 1 .! inst2|inst26~1_combout $end
$var wire 1 /! inst2|inst26~3_combout $end
$var wire 1 0! inst2|inst26~_emulated_regout $end
$var wire 1 1! inst2|inst26~2_combout $end
$var wire 1 2! inst1|inst~1_combout $end
$var wire 1 3! inst1|inst~3_combout $end
$var wire 1 4! inst1|inst~_emulated_regout $end
$var wire 1 5! inst1|inst~2_combout $end
$var wire 1 6! inst1|inst29~1_combout $end
$var wire 1 7! inst1|inst29~3_combout $end
$var wire 1 8! inst1|inst29~_emulated_regout $end
$var wire 1 9! inst1|inst29~2_combout $end
$var wire 1 :! inst1|inst5~1_combout $end
$var wire 1 ;! inst1|inst5~3_combout $end
$var wire 1 <! inst1|inst5~_emulated_regout $end
$var wire 1 =! inst1|inst5~2_combout $end
$var wire 1 >! inst1|inst9~1_combout $end
$var wire 1 ?! inst1|inst9~3_combout $end
$var wire 1 @! inst1|inst9~_emulated_regout $end
$var wire 1 A! inst1|inst9~2_combout $end
$var wire 1 B! inst1|inst14~1_combout $end
$var wire 1 C! inst1|inst14~3_combout $end
$var wire 1 D! inst1|inst14~_emulated_regout $end
$var wire 1 E! inst1|inst14~2_combout $end
$var wire 1 F! inst1|inst17~1_combout $end
$var wire 1 G! inst1|inst17~3_combout $end
$var wire 1 H! inst1|inst17~_emulated_regout $end
$var wire 1 I! inst1|inst17~2_combout $end
$var wire 1 J! inst1|inst21~1_combout $end
$var wire 1 K! inst1|inst21~3_combout $end
$var wire 1 L! inst1|inst21~_emulated_regout $end
$var wire 1 M! inst1|inst21~2_combout $end
$var wire 1 N! inst1|inst26~1_combout $end
$var wire 1 O! inst1|inst26~3_combout $end
$var wire 1 P! inst1|inst26~_emulated_regout $end
$var wire 1 Q! inst1|inst26~2_combout $end
$var wire 1 R! inst|inst~1_combout $end
$var wire 1 S! inst|inst~3_combout $end
$var wire 1 T! inst|inst~_emulated_regout $end
$var wire 1 U! inst|inst~2_combout $end
$var wire 1 V! inst|inst29~1_combout $end
$var wire 1 W! inst|inst29~3_combout $end
$var wire 1 X! inst|inst29~_emulated_regout $end
$var wire 1 Y! inst|inst29~2_combout $end
$var wire 1 Z! inst|inst5~1_combout $end
$var wire 1 [! inst|inst5~3_combout $end
$var wire 1 \! inst|inst5~_emulated_regout $end
$var wire 1 ]! inst|inst5~2_combout $end
$var wire 1 ^! inst|inst9~1_combout $end
$var wire 1 _! inst|inst9~3_combout $end
$var wire 1 `! inst|inst9~_emulated_regout $end
$var wire 1 a! inst|inst9~2_combout $end
$var wire 1 b! inst|inst14~1_combout $end
$var wire 1 c! inst|inst14~3_combout $end
$var wire 1 d! inst|inst14~_emulated_regout $end
$var wire 1 e! inst|inst14~2_combout $end
$var wire 1 f! inst|inst17~1_combout $end
$var wire 1 g! inst|inst17~3_combout $end
$var wire 1 h! inst|inst17~_emulated_regout $end
$var wire 1 i! inst|inst17~2_combout $end
$var wire 1 j! inst|inst21~1_combout $end
$var wire 1 k! inst|inst21~3_combout $end
$var wire 1 l! inst|inst21~_emulated_regout $end
$var wire 1 m! inst|inst21~2_combout $end
$var wire 1 n! inst|inst26~1_combout $end
$var wire 1 o! inst|inst26~3_combout $end
$var wire 1 p! inst|inst26~_emulated_regout $end
$var wire 1 q! inst|inst26~2_combout $end
$var wire 1 r! P~combout [31] $end
$var wire 1 s! P~combout [30] $end
$var wire 1 t! P~combout [29] $end
$var wire 1 u! P~combout [28] $end
$var wire 1 v! P~combout [27] $end
$var wire 1 w! P~combout [26] $end
$var wire 1 x! P~combout [25] $end
$var wire 1 y! P~combout [24] $end
$var wire 1 z! P~combout [23] $end
$var wire 1 {! P~combout [22] $end
$var wire 1 |! P~combout [21] $end
$var wire 1 }! P~combout [20] $end
$var wire 1 ~! P~combout [19] $end
$var wire 1 !" P~combout [18] $end
$var wire 1 "" P~combout [17] $end
$var wire 1 #" P~combout [16] $end
$var wire 1 $" P~combout [15] $end
$var wire 1 %" P~combout [14] $end
$var wire 1 &" P~combout [13] $end
$var wire 1 '" P~combout [12] $end
$var wire 1 (" P~combout [11] $end
$var wire 1 )" P~combout [10] $end
$var wire 1 *" P~combout [9] $end
$var wire 1 +" P~combout [8] $end
$var wire 1 ," P~combout [7] $end
$var wire 1 -" P~combout [6] $end
$var wire 1 ." P~combout [5] $end
$var wire 1 /" P~combout [4] $end
$var wire 1 0" P~combout [3] $end
$var wire 1 1" P~combout [2] $end
$var wire 1 2" P~combout [1] $end
$var wire 1 3" P~combout [0] $end
$var wire 1 4" DATA~combout [31] $end
$var wire 1 5" DATA~combout [30] $end
$var wire 1 6" DATA~combout [29] $end
$var wire 1 7" DATA~combout [28] $end
$var wire 1 8" DATA~combout [27] $end
$var wire 1 9" DATA~combout [26] $end
$var wire 1 :" DATA~combout [25] $end
$var wire 1 ;" DATA~combout [24] $end
$var wire 1 <" DATA~combout [23] $end
$var wire 1 =" DATA~combout [22] $end
$var wire 1 >" DATA~combout [21] $end
$var wire 1 ?" DATA~combout [20] $end
$var wire 1 @" DATA~combout [19] $end
$var wire 1 A" DATA~combout [18] $end
$var wire 1 B" DATA~combout [17] $end
$var wire 1 C" DATA~combout [16] $end
$var wire 1 D" DATA~combout [15] $end
$var wire 1 E" DATA~combout [14] $end
$var wire 1 F" DATA~combout [13] $end
$var wire 1 G" DATA~combout [12] $end
$var wire 1 H" DATA~combout [11] $end
$var wire 1 I" DATA~combout [10] $end
$var wire 1 J" DATA~combout [9] $end
$var wire 1 K" DATA~combout [8] $end
$var wire 1 L" DATA~combout [7] $end
$var wire 1 M" DATA~combout [6] $end
$var wire 1 N" DATA~combout [5] $end
$var wire 1 O" DATA~combout [4] $end
$var wire 1 P" DATA~combout [3] $end
$var wire 1 Q" DATA~combout [2] $end
$var wire 1 R" DATA~combout [1] $end
$var wire 1 S" DATA~combout [0] $end
$upscope $end
$upscope $end
$enddefinitions $end
#0
$dumpvars
0!
b1010101010101010101010101010101 "
0#
b11110000000000000000 $
xD
xC
xB
xA
x@
x?
x>
x=
x<
x;
x:
x9
x8
x7
x6
x5
x4
x3
x2
x1
x0
x/
x.
x-
x,
x+
x*
x)
x(
x'
x&
x%
xE
0F
1G
xH
1I
1J
1K
0L
0M
0N
0O
xP
xQ
0R
xS
xT
xU
0V
xW
xX
xY
0Z
x[
x\
x]
0^
x_
x`
xa
0b
xc
xd
xe
0f
xg
xh
xi
0j
xk
xl
xm
0n
xo
xp
xq
0r
xs
xt
xu
0v
xw
xx
xy
0z
x{
x|
x}
0~
x!!
x"!
x#!
0$!
x%!
x&!
x'!
0(!
x)!
x*!
x+!
0,!
x-!
x.!
x/!
00!
x1!
x2!
x3!
04!
x5!
x6!
x7!
08!
x9!
x:!
x;!
0<!
x=!
x>!
x?!
0@!
xA!
xB!
xC!
0D!
xE!
xF!
xG!
0H!
xI!
xJ!
xK!
0L!
xM!
xN!
xO!
0P!
xQ!
xR!
xS!
0T!
xU!
xV!
xW!
0X!
xY!
xZ!
x[!
0\!
x]!
x^!
x_!
0`!
xa!
xb!
xc!
0d!
xe!
xf!
xg!
0h!
xi!
xj!
xk!
0l!
xm!
xn!
xo!
0p!
xq!
03"
02"
01"
00"
0/"
0."
0-"
0,"
0+"
0*"
0)"
0("
0'"
0&"
0%"
0$"
1#"
1""
1!"
1~!
0}!
0|!
0{!
0z!
0y!
0x!
0w!
0v!
0u!
0t!
0s!
0r!
1S"
0R"
1Q"
0P"
1O"
0N"
1M"
0L"
1K"
0J"
1I"
0H"
1G"
0F"
1E"
0D"
1C"
0B"
1A"
0@"
1?"
0>"
1="
0<"
1;"
0:"
19"
08"
17"
06"
15"
04"
$end
#90000
1!
1L
1M
0E
xp!
xl!
xh!
xd!
x`!
x\!
xX!
xT!
xP!
xL!
xH!
xD!
x@!
x<!
x8!
x4!
x0!
x,!
x(!
x$!
x~
xz
xv
xr
xn
xj
xf
xb
x^
xZ
xV
xR
#200000
0!
0L
0M
1E
#240000
b1010101010101010101010101010111 "
b1010101010101010101010101010110 "
0S"
1R"
0E
#460000
1!
1L
1M
1E
#480000
b1010101010101010101010101010111 "
1S"
0E
#490000
0!
0L
0M
1E
#620000
1#
1N
1O
0E
0q!
0m!
0i!
0e!
0a!
0]!
0Y!
0U!
0Q!
0M!
0I!
0E!
0A!
0=!
09!
05!
11!
1-!
1)!
1%!
0!!
0{
0w
0s
0o
0k
0g
0c
0_
0[
0W
0S
0n!
0j!
0f!
0b!
0^!
0Z!
0V!
0R!
0N!
0J!
0F!
0B!
0>!
0:!
06!
02!
1.!
1*!
1&!
1"!
0|
0x
0t
0p
0l
0h
0d
0`
0\
0X
0T
0P
1o!
1k!
1g!
0c!
1_!
0[!
1W!
0S!
1O!
0K!
1G!
0C!
1?!
0;!
17!
03!
0/!
1+!
0'!
1#!
1}
0y
1u
0q
1m
0i
1e
0a
1]
0Y
1U
0Q
0D
0C
0B
0A
0@
0?
0>
0=
0<
0;
0:
09
08
07
06
05
14
13
12
11
00
0/
0.
0-
0,
0+
0*
0)
0(
0'
0&
0%
0p!
0l!
0h!
0d!
0`!
0\!
0X!
0T!
0P!
0L!
0H!
0D!
0@!
0<!
08!
04!
00!
0,!
0(!
0$!
0~
0z
0v
0r
0n
0j
0f
0b
0^
0Z
0V
0R
#650000
1!
1L
1M
1E
#680000
0!
0L
0M
0E
#720000
b1010101010101010101010101011111 "
b1010101010101010101010101011011 "
b1010101010101010101010101011001 "
b1010101010101010101010101011000 "
0S"
0R"
0Q"
1P"
1E
0o!
0k!
0g!
1c!
#750000
0#
0N
0O
0E
#960000
b11110000000000000001 $
b1010101010101010101010101011001 "
1S"
13"
1E
1o!
