simulation/qsim/MIC1.msim.vcd
$comment
	File created using the following command:
		vcd file MIC1.msim.vcd -direction
$end
$date
	Wed Apr 30 12:15:21 2025
$end
$version
	ModelSim Version 10.1d
$end
$timescale
	1ps
$end
$scope module ULA_1_bit_vlg_vec_tst $end
$var reg 1 ! A $end
$var reg 1 " B $end
$var reg 1 # CIN $end
$var reg 1 $ ENA $end
$var reg 1 % ENB $end
$var reg 1 & F0 $end
$var reg 1 ' F1 $end
$var reg 1 ( INVA $end
$var wire 1 ) COUT $end
$var wire 1 * O $end
$var wire 1 + sampler $end
$scope module i1 $end
$var wire 1 , gnd $end
$var wire 1 - vcc $end
$var wire 1 . unknown $end
$var tri1 1 / devclrn $end
$var tri1 1 0 devpor $end
$var tri1 1 1 devoe $end
$var wire 1 2 F0~combout $end
$var wire 1 3 ENB~combout $end
$var wire 1 4 B~combout $end
$var wire 1 5 inst2~combout $end
$var wire 1 6 F1~combout $end
$var wire 1 7 INVA~combout $end
$var wire 1 8 ENA~combout $end
$var wire 1 9 A~combout $end
$var wire 1 : inst7~combout $end
$var wire 1 ; inst10~2_combout $end
$var wire 1 < inst10~3_combout $end
$var wire 1 = inst10~4_combout $end
$var wire 1 > inst1|inst3~0_combout $end
$var wire 1 ? CIN~combout $end
$var wire 1 @ inst1|inst5~combout $end
$upscope $end
$upscope $end
$enddefinitions $end
#0
$dumpvars
0!
0"
0#
1$
1%
0&
0'
0(
x)
x*
x+
0,
1-
x.
1/
10
11
02
13
04
x5
06
07
18
09
x:
x;
x<
x=
x>
0?
x@
$end
#807
0>
#932
05
#1504
0@
#4909
0;
#4928
0)
#5153
0:
#5566
0<
#5579
0=
#9475
0*
#100000
1"
0+
#100979
14
#101911
15
#102053
1<
#200000
1!
0"
1+
#200852
19
#200979
04
#201911
05
#202053
0<
#206005
1:
#206418
1<
#300000
1"
0+
#300979
14
#301911
15
#302053
0<
#302580
1;
#303250
1=
#307146
1*
#400000
1'
0!
0"
1+
#400852
09
#400979
04
#400989
16
#401911
05
#402053
1<
#406005
0:
#406418
0<
#406419
0;
#407089
0=
#410985
0*
#500000
1"
0+
#500979
14
#501911
15
#502053
1<
#502580
1;
#503250
1=
#507146
1*
#600000
1!
0"
1+
#600852
19
#600979
04
#601911
05
#602053
0<
#602580
0;
#603250
0=
#606005
1:
#606418
1<
#606419
1;
#607089
1=
#607146
0*
#610985
1*
#700000
1"
0+
#700979
14
#701911
15
#702053
0<
#800000
1&
0'
0!
0"
1+
#800852
09
12
#800979
04
#800989
06
#801911
05
#802053
1<
#802580
0;
#803250
0=
#805761
1;
#806005
0:
#806418
0<
#806431
1=
#807146
0*
#810327
1*
#900000
1"
0+
#900979
14
#901911
15
#902053
1<
#902580
0;
#903250
0=
#907146
0*
#1000000
1!
0"
1+
#1000852
19
#1000979
04
#1001911
05
#1002053
0<
#1002580
1;
#1003250
1=
#1006005
1:
#1006418
1<
#1007146
1*
#1100000
1"
0+
#1100979
14
#1101911
15
#1102053
0<
#1102580
0;
#1103250
0=
#1107146
0*
#1200000
1'
0!
0"
1+
#1200852
09
#1200979
04
#1200989
16
#1201796
1>
#1201911
05
#1202053
1<
#1202447
1=
#1206005
0:
#1206343
1*
#1206418
0<
#1206812
0=
#1210708
0*
#1300000
1"
0+
#1300979
14
#1301911
15
#1302053
1<
#1302447
1=
#1306343
1*
#1400000
1!
0"
1+
#1400852
19
#1400979
04
#1401911
05
#1402053
0<
#1402447
0=
#1406005
1:
#1406343
0*
#1406418
1<
#1406812
1=
#1410708
1*
#1500000
1"
0+
#1500979
14
#1501911
15
#1502053
0<
#1502447
0=
#1502582
1@
#1506006
1)
#1506343
0*
#1600000
1#
0!
0"
1+
#1600852
09
1?
#1600979
04
#1601911
05
#1602053
1<
#1602447
1=
#1602582
0@
#1605920
1@
#1606005
0:
#1606006
0)
#1606093
0<
#1606343
1*
#1606416
0@
#1606418
1<
#1606487
0=
#1606812
1=
#1700000
1"
0+
#1700979
14
#1701911
15
#1702053
0<
#1702447
0=
#1702582
1@
#1706006
1)
#1706343
0*
#1800000
1!
0"
1+
#1800852
19
#1800979
04
#1801911
05
#1802053
1<
#1802447
1=
#1802582
0@
#1806005
1:
#1806006
0)
#1806343
1*
#1806416
1@
#1806418
0<
#1806812
0=
#1809840
1)
#1810708
0*
#1900000
1"
0+
#1900979
14
#1901911
15
#1902053
1<
#1902447
1=
#1906343
1*
